-----BEGIN PGP SIGNATURE-----
Version: BCPG v1.68

iQGcBAABCgAGBQJl4xnkAAoJEDdwF3BqJd4kCbkMAK385DUd3P8T5yQF7Z2FlYyK
sn0id80S5X1hj71GCKU0uPSsW1x37oprQkLxQEPfb0wo9gqmgwrKzj5vnKjFtBLU
yMMYcqnYc7ramHqyS8r9DMLFFB5qNdcqsjrlxm5VXwH1eTCE6WHe1IyBZ8wFuthW
MAByy9+PbEHDVM9I3E6oJRDQeJJY9oP1CBZpja52+tLGv69Fh5nK17LomME/23eN
L4U1f5TYs/uZZmqHlR0avcULFuBtgT5n6chajlX1El6vlrjx1EznfVpehJpuel1j
3EbG5dOD9s5saN5I3phpElW1BGja2tRYPZY1qkaZRwCYGF2qsL6FkN2WVA9UjwKd
4taIV88bsefpF5ZaPAkB8W4VDoy0RV6w4nkq8gx0fc/2C2/GPbBgEFcxaIrgFHRr
QTmey5uSg05KhOHxEHEPxj8D+sW+U1dJNmkoYHZAzjSq3f59XxV8PbJLgAmVcFrI
X5hFZFrubXQ2lzopINpSoQb5IbpTt37xpNkVdFJs9A==
=MIMB
-----END PGP SIGNATURE-----
