-----BEGIN PGP SIGNATURE-----
Version: BCPG v1.68

iQGcBAABCgAGBQJl4xneAAoJEDdwF3BqJd4kZoIL/jWsi8lsvlQMtOxiCeWs/uVV
lMxIaLsUyHMVnVsfE6guCS/U2LAZlEunzo5gqMlubOgQIwnxEbde2Sn+J7iVENrY
VR2lPpQeMJ+/LHv9WtQiygbFfU+7p4BYwD0UuFLaDxXx/BS8V9A+A9uaOhUd+uHQ
oO1LP+K5lsvO+x7Lho3BHmLlrHUJ4Ms3Vs58w+foZjXdzK3U7VTw3cgYzCAAiB9B
RJqtgYtwhU6HwS7P12lL6Ov5fNL/oKHAGP77DLvoaJQ2oe49vACUosTAHAHJwZHD
lxH7S+/rF8bLa4fEGfPeH5Ho3suiu7Jvbp0XG6gbHR9d4p0FyORZ3v96snI4QgLM
kYy08c9vekAZPtHZ+Tz76s6uvcquiJHrIzAFBFYWuQvcpUpsRemZi4BghaOSVWKr
9t4zD+Cb7DGT42JlRfmSL3MjUIx+vDKAzJuJBpki5p8hdf7xKkDjTPy0kQnJEyVG
4dBVYG7j2Yt4RQ/0MXu4CL3XX/MUGTJLpgsKOUYRjg==
=wZK2
-----END PGP SIGNATURE-----
