-----BEGIN PGP SIGNATURE-----
Version: BCPG v1.68

iQGcBAABCgAGBQJl4xnZAAoJEDdwF3BqJd4k/ZoMAJF6nHDcpHIP7BRU62EuDO37
f5VEOOJQQxyfbdRXAmPNvnDAzFR/MZ8CqX1Q7LnJkEzK4f7OumMjKNzB6Qe6Xqhh
Cv5sDeiurfQfGd9I5NvhatoTzVYeiiuM2JsfF6Vb4W7lL5zrTBdItmiBazAEObbM
v4Rk2tBHCTA0uQc+8QIKGfUPUOVNrdYoRI5YqId/9sxHgPXjbjJjhcaFLf1PqzO3
8s6NyjCS23I1okLcG96QOARaltk6d/gCrvU0vfqufcFA3v/170m1ZHmLS+dSuMOR
J9vWyntcCvg1kq0Mz5nPdDuEfCbezFuEQBP9zZa1SaoSnFwOxq7i2TEwTkMsCDso
ggACa4m77wl4Czpd6qrVgvYPQt3l5NDEvAGrEGvaE9Qb8LQ+PsnI8PwqOh8yygXO
tMZDwAPSWNpC7jKwXxEsRzawWuvNwR/pzL9/zWBe8Y16i2CkAw7muyCNwTOyNTP+
S/pHisiigQddQFun2X3t9hb+FPWRn8UwElnoHxLo6A==
=XhUC
-----END PGP SIGNATURE-----
