-----BEGIN PGP SIGNATURE-----
Version: BCPG v1.68

iQGcBAABCgAGBQJl4xnZAAoJEDdwF3BqJd4kOEQL/1FEvekx4k6BHkDFUsljUO4A
as6iTm3aG7MnKaWndctjP729HM7+orSpfup3t685i8xGQB1Xp1I4DJLEPC1Ywm+t
oPOwUgctROtozcQuEfIvHqliBuRkAGaVjlkIW3XZq3TltG1gCy1P5+fYOcoQ1yWl
imWzBWES+I39q5RI/T0mYrPoaYuE2qp5TfAckll9YEVWEAgRn9sLaF3k3/UDXDCV
jqBdpOPpRG5CF0PTkTP0SXQ26HRddjn0zBN7ORHsg+WdFif+ytJjznHAu9QrmmfQ
ecEwgi00bREpXJfogWurDMR8g13z2nFb6ahxN0GC+eJcCBRD8EeUv3zK5HbDRBIC
yReDCMnR7XyufYT/DOLQrV3sc8sCiMecYXqQoWRckKuQtMD+jZ+9vKgRyuAFudBa
wwQ8jIvbxkYB49Q5JdNaHGnewQU50gBX5szOPzPldRomony7boUP/aDRR967C/3p
kZthgtnSOG+7/HR1OszcC5sOUU8vvk8Mv7Mfx8OnCw==
=e8Cw
-----END PGP SIGNATURE-----
