-----BEGIN PGP SIGNATURE-----
Version: BCPG v1.68

iQGcBAABCgAGBQJl4xnZAAoJEDdwF3BqJd4kDRUL/39OdFV51Uu52tmkRd66yN4w
tk2mFGWdif3ecdvkK6peGgPriEtIV758d5J8zzNWnjiEidJquDXrLm0hagNWNiE3
/6NMVxp5qWH9zNvFJxHJI8EPHr4kl1l6Tm27yjp8E2G8FZJ6GOHgFvDMV0w4jL0A
bsdvF7mid7MfeP5vB+wesrG7mZnlc+xW5aJec1NQq3WOWbGl7aivZJJrXGtuSppP
C4QEB0svugqSdzosEqPHnI9+3q1WcuN8yOmxLtXbnCr04IJAfbA2hbjL1zXhoLme
ALVI4pWt6v6FaziwoUBDsGndLcAjJmVCvR7U3KLuH1ZiNbstdGXrcjzObUbkpd4l
XrQ1aKmuL4n/d+GwwktEzzga4Mn+d4dF03tvH7dcYuvYZFUup8K7g7VPCA6JRRIE
Jsq8333mtijYq4JNi8Ks/5wja+Dx18X4lVoGZCe/K3nmnZog9OlINXto1mJjsp+y
tkRr7WGTn7IYNoT016V2Vnc9DQPvAEJdt/KBAcZDWw==
=rt6x
-----END PGP SIGNATURE-----
