-----BEGIN PGP SIGNATURE-----
Version: BCPG v1.68

iQGcBAABCgAGBQJl4xnZAAoJEDdwF3BqJd4kO3cL/2nbhkvne0RCJbe+t9UP6c2B
xeGr1kl7WsZto4OHeK93Ja+YT96ogHuiuWw0y4edXa1GqWoc49UV6xDChoqgdUWH
9KV/gArPLsA2vu8MKSEEVtWiFle5cfzCkgRMWdx7AMFomNI1sMh1I2Oq+EFZ86Z8
OKyN8i3by3yrVYBThC88TouHq4SDFm6wnShThN+zIzLbIoHCS9rQGngck2Qo6YW1
Qk8E4reWXb0VUwXkdLlZEG1xfSYPopeAEA13F7Z+m4Y5hNdaIi9A0WLW4BkLZ8he
Bf7sD3qDL6xoA12u4+C3zFv/O6b0KK/utff1WHwf21d0/fYJdt2dB4MZNFvIdc3a
7CDSouopxeTcjw+NRfxOVLENCiWJPf2V2KmcBPoN1U6/4SPM+Pmh+I6nuwAdXtXp
bfH59HkZ7JbZcdgc82VoxN+DDMdVljjWUk+g2kjj2HKNj5WwOux7X7NQ+JVl26i8
osXuCPaS9CWiLoqxlo1gfNRqB2QbGoYdDajaDpXPcA==
=H3+h
-----END PGP SIGNATURE-----
