-----BEGIN PGP SIGNATURE-----
Version: BCPG v1.68

iQGcBAABCgAGBQJl4xnjAAoJEDdwF3BqJd4kwpoL+weru7LvwxKSHjZ1iBYy/gh0
C2Ep+ZILLipkrrcnvgLOm9P+U4jHyYacbH3vOozZt5tAcZpNz0EdA24dug2XZDSY
AhlAtHcPZCCy4Jn5HS3uTjXdlqpZobbJM+tqFPr+T7g3g19/7JunFL3GTth/pEDr
9eHK0wzpsx5rMXwST2q+06d8/85fi2mnt6PkTQM/PD2g41MFer2XwY59yHBVSkGb
yHbX3uYCN9gPslUkBYp1AhBslcZo2CpEhgbou/GOv3MfhsbyXQNwRMNmG7e+AWik
49MPJVP70RkIHNxGEEVdrh2VkttuE7TfEXbyV4oh0G12cBc0bq6dpxvqAh6SFZze
650ljT+H4xQtFesjmtS3oVNb01oEX54d+c0b0CCEJxs/x2dvLNicdTUZCg/kBMd7
Ji9Q5/3T+bwJAXU7VQ4fT2fAbusu+sg8uPOd8QdpNw7IrrZ4PA4wjsXIuXcy/miI
eWgP0Fon0Bfy06UhvuHv1NXYAu/zNzMFyFBY32ztYQ==
=6LfA
-----END PGP SIGNATURE-----
